{
    "KPlugin": {
        "Authors": [
            {
                "Email": "chani@kde.org",
                "Name": "Chani",
                "Name[ar]": "تشاني",
                "Name[az]": "Chani",
                "Name[be]": "Chani",
                "Name[bg]": "Chani",
                "Name[ca@valencia]": "Chani",
                "Name[ca]": "Chani",
                "Name[cs]": "Chani",
                "Name[da]": "Chani",
                "Name[de]": "Chani",
                "Name[en_GB]": "Chani",
                "Name[es]": "Chani",
                "Name[et]": "Chani",
                "Name[eu]": "Chani",
                "Name[fi]": "Chani",
                "Name[fr]": "Chani",
                "Name[hu]": "Chani",
                "Name[ia]": "Chani",
                "Name[id]": "Chani",
                "Name[is]": "Chani",
                "Name[it]": "Chani",
                "Name[ja]": "Chani",
                "Name[ka]": "Chani",
                "Name[ko]": "Chani",
                "Name[lt]": "Chani",
                "Name[nl]": "Chani",
                "Name[nn]": "Chani",
                "Name[pl]": "Chani",
                "Name[pt]": "Chani",
                "Name[pt_BR]": "Chani",
                "Name[ro]": "Chani",
                "Name[ru]": "Chani",
                "Name[sk]": "Chani",
                "Name[sl]": "Chani",
                "Name[sv]": "Chani",
                "Name[ta]": "இச்சானி",
                "Name[tr]": "Chani",
                "Name[uk]": "Chani",
                "Name[vi]": "Chani",
                "Name[x-test]": "xxChanixx",
                "Name[zh_CN]": "Chani"
            }
        ],
        "Description": "Show a list of windows to switch to",
        "Description[ar]": "أظهر قائمة النوافذ للتبديل بينها",
        "Description[az]": "Bütün pəncərələrin siyahısı",
        "Description[be]": "Паказ спіса акон для пераключэння",
        "Description[bg]": "Показва списък с прозорци за превключване",
        "Description[ca@valencia]": "Mostra una llista de les finestres per a canviar-hi",
        "Description[ca]": "Mostra una llista de les finestres per a canviar",
        "Description[cs]": "Zobrazit seznam oken k přepnutí",
        "Description[da]": "Vis en liste over åbne vinduer at skifte til",
        "Description[de]": "Eine Liste aller Fenster anzeigen",
        "Description[en_GB]": "Show a list of windows to switch to",
        "Description[eo]": "Montri liston de festestroj por komuti",
        "Description[es]": "Mostrar una lista de ventanas a las que cambiar",
        "Description[et]": "Võimalike akende loendi näitamine",
        "Description[eu]": "Erakutsi aldatzeko hauta ditzakezun leihoen zerrenda bat",
        "Description[fi]": "Näytä luettelo ikkunoista, joihin voi vaihtaa",
        "Description[fr]": "Afficher une liste de fenêtres vers lesquelles basculer",
        "Description[hu]": "Ablakok listájának megjelenítése váltáshoz",
        "Description[ia]": "Monstra  un lista de fenestras ubi commutar",
        "Description[id]": "Tampilkan daftar jendela yang akan dialihkan",
        "Description[is]": "Sýna lista yfir glugga sem hægt er að skipta yfir í",
        "Description[it]": "Mostra un elenco di finestre a cui passare",
        "Description[ja]": "他のウィンドウに切り替えるためにウィンドウのリストを表示します",
        "Description[ka]": "გადასართველი ფანჯრების სიის ჩვენება",
        "Description[ko]": "전환할 수 있는 창 목록을 표시합니다",
        "Description[lt]": "Rodyti langų, į kuriuos perjungti, sąrašą",
        "Description[nl]": "Toon een lijst met vensters waarnaar om te schakelen",
        "Description[nn]": "Vis ei oversikt over vindauge å byta til",
        "Description[pl]": "Przełącza między oknami",
        "Description[pt]": "Mostrar uma lista com as janelas para onde mudar",
        "Description[pt_BR]": "Exibe uma lista de janelas para alternar",
        "Description[ro]": "Arată o listă de ferestre de comutat",
        "Description[ru]": "Показать список окон",
        "Description[sk]": "Zobrazenie zoznamu okien na prepnutie",
        "Description[sl]": "Prikaži seznam oken kamor se je mogoče preklopiti",
        "Description[sv]": "Visa en lista med fönster att byta till",
        "Description[ta]": "தாவுவதற்காக சாளரங்களை பட்டியலிடு",
        "Description[tr]": "Geçmek için pencereler listesini göster",
        "Description[uk]": "Показує список вікон для перемикання",
        "Description[vi]": "Hiện một danh sách các cửa sổ để chuyển",
        "Description[x-test]": "xxShow a list of windows to switch toxx",
        "Description[zh_CN]": "显示可供切换的窗口列表",
        "Description[zh_TW]": "列出視窗並切換",
        "EnabledByDefault": true,
        "Icon": "preferences-system-windows",
        "Id": "switchwindow",
        "License": "GPL",
        "Name": "Switch Window",
        "Name[ar]": "بدّل النافذة",
        "Name[az]": "Pəncərə dəyişmə",
        "Name[be]": "Пераключэнне акна",
        "Name[bg]": "Превключване на прозорци",
        "Name[bs]": "Prebacivanje prozora",
        "Name[ca@valencia]": "Canvi de finestra",
        "Name[ca]": "Canvi de finestra",
        "Name[cs]": "Přepnout okna",
        "Name[da]": "Skift vindue",
        "Name[de]": "Fenster wechseln",
        "Name[el]": "Εναλλαγή παραθύρου",
        "Name[en_GB]": "Switch Window",
        "Name[eo]": "Ŝalti fenestron",
        "Name[es]": "Cambiar ventana",
        "Name[et]": "Akna vahetamine",
        "Name[eu]": "Aldatu leihoz",
        "Name[fi]": "Vaihda ikkunaa",
        "Name[fr]": "Changer de fenêtre",
        "Name[fy]": "Finster wikselje",
        "Name[ga]": "Athraigh an Fhuinneog",
        "Name[gl]": "Tocar de xanela",
        "Name[he]": "מחליף חלונות",
        "Name[hi]": "विंडो बदलें",
        "Name[hr]": "Prebaci prozor",
        "Name[hsb]": "Na hinaše wokno hić",
        "Name[hu]": "Ablakváltás",
        "Name[ia]": "Commuta  fenestra",
        "Name[id]": "Alihkan Jendela",
        "Name[is]": "Skipta um glugga",
        "Name[it]": "Cambia finestra",
        "Name[ja]": "ウィンドウを切り替え",
        "Name[ka]": "ფანჯრის გადართვა",
        "Name[kk]": "Терезені ауыстыру",
        "Name[km]": "ប្ដូរ​បង្អួច",
        "Name[kn]": "ಕಿಟಿಕಿಯನ್ನು ಬದಲಾಯಿಸು",
        "Name[ko]": "창 전환",
        "Name[lt]": "Perjungti langą",
        "Name[lv]": "Pārslēgt logu",
        "Name[mk]": "Смени прозорец",
        "Name[ml]": "ജാലകം മാറുക",
        "Name[mr]": "वेगळ्या चौकट वर जा",
        "Name[nb]": "Bytt vindu",
        "Name[nds]": "Finster wesseln",
        "Name[nl]": "Venster omschakelen",
        "Name[nn]": "Byt vindauge",
        "Name[pa]": "ਵਿੰਡੋ ਬਦਲੋ",
        "Name[pl]": "Przełącznik okien",
        "Name[pt]": "Mudar de Janela",
        "Name[pt_BR]": "Alternar janela",
        "Name[ro]": "Comutare fereastră",
        "Name[ru]": "Переключение окон",
        "Name[si]": "කවුළුව මාරුකරන්න",
        "Name[sk]": "Prepnúť okno",
        "Name[sl]": "Preklopi med okni",
        "Name[sr@ijekavian]": "пребацивање прозора",
        "Name[sr@ijekavianlatin]": "prebacivanje prozora",
        "Name[sr@latin]": "prebacivanje prozora",
        "Name[sr]": "пребацивање прозора",
        "Name[sv]": "Byt fönster",
        "Name[ta]": "வேறு சாளரத்துக்குத் தாவு",
        "Name[tg]": "Гузариши равзана",
        "Name[th]": "สลับหน้าต่าง",
        "Name[tr]": "Pencereyi Değiştir",
        "Name[ug]": "كۆزنەك ئالماشتۇر",
        "Name[uk]": "Перемкнути вікно",
        "Name[vi]": "Chuyển cửa sổ",
        "Name[wa]": "Passer a ene ôte finiesse",
        "Name[x-test]": "xxSwitch Windowxx",
        "Name[zh_CN]": "切换窗口",
        "Name[zh_TW]": "切換視窗",
        "Version": "pre0.1",
        "Website": "https://www.kde.org/plasma-desktop"
    },
    "X-Plasma-HasConfigurationInterface": true
}
